<?xml version="1.0" encoding="UTF-8" standalone="no"?>
<svg
   id="svg4326"
   version="1.1"
   inkscape:version="1.3.2 (091e20ef0f, 2023-11-25)"
   width="408.22894"
   height="120.09567"
   sodipodi:docname="bfac118d7109aa8af3895a0d7b8ed544842ff3d8156c2cbe5dc0caecb9d586fb-fedoraweekofdiversitylogo.svg"
   inkscape:export-filename="../../FAW_logo_w_date.svg"
   inkscape:export-xdpi="96"
   inkscape:export-ydpi="96"
   xmlns:inkscape="http://www.inkscape.org/namespaces/inkscape"
   xmlns:sodipodi="http://sodipodi.sourceforge.net/DTD/sodipodi-0.dtd"
   xmlns="http://www.w3.org/2000/svg"
   xmlns:svg="http://www.w3.org/2000/svg"
   xmlns:rdf="http://www.w3.org/1999/02/22-rdf-syntax-ns#"
   xmlns:cc="http://creativecommons.org/ns#"
   xmlns:dc="http://purl.org/dc/elements/1.1/">
  <metadata
     id="metadata4332">
    <rdf:RDF>
      <cc:Work
         rdf:about="">
        <dc:format>image/svg+xml</dc:format>
        <dc:type
           rdf:resource="http://purl.org/dc/dcmitype/StillImage" />
        <dc:title />
      </cc:Work>
    </rdf:RDF>
  </metadata>
  <defs
     id="defs4330">
    <rect
       x="26.458332"
       y="157.2381"
       width="291.04166"
       height="22.678572"
       id="rect1654" />
    <rect
       id="rect3523"
       height="34.759884"
       width="292.54782"
       y="123.97619"
       x="27.214287" />
  </defs>
  <sodipodi:namedview
     inkscape:snap-grids="true"
     inkscape:snap-nodes="true"
     inkscape:snap-bbox="true"
     pagecolor="#ffffff"
     bordercolor="#666666"
     borderopacity="1"
     objecttolerance="10"
     gridtolerance="10"
     guidetolerance="10"
     inkscape:pageopacity="0"
     inkscape:pageshadow="2"
     inkscape:window-width="1920"
     inkscape:window-height="1095"
     id="namedview4328"
     showgrid="false"
     inkscape:zoom="2.3164818"
     inkscape:cx="249.51631"
     inkscape:cy="180.44605"
     inkscape:window-x="1920"
     inkscape:window-y="32"
     inkscape:window-maximized="1"
     inkscape:current-layer="g8520"
     showguides="false"
     inkscape:guide-bbox="true"
     inkscape:snap-global="false"
     fit-margin-top="0"
     fit-margin-left="0"
     fit-margin-right="0"
     fit-margin-bottom="0"
     inkscape:document-rotation="0"
     inkscape:showpageshadow="2"
     inkscape:pagecheckerboard="0"
     inkscape:deskcolor="#d1d1d1">
    <inkscape:grid
       type="xygrid"
       id="grid5527"
       originx="-45.885487"
       originy="-188.25742"
       spacingy="1"
       spacingx="1"
       units="px"
       visible="false" />
    <sodipodi:guide
       position="3.9721679e-07,399.07625"
       orientation="0,-1"
       id="guide2"
       inkscape:locked="false" />
    <sodipodi:guide
       position="11.676851,380.1706"
       orientation="0,-1"
       id="guide3"
       inkscape:locked="false" />
    <sodipodi:guide
       position="13.027822,389.72262"
       orientation="0,-1"
       id="guide4"
       inkscape:locked="false" />
    <sodipodi:guide
       position="-8.5295896,370.06622"
       orientation="0,-1"
       id="guide5"
       inkscape:locked="false" />
    <sodipodi:guide
       position="400.56623,444.37567"
       orientation="1,0"
       id="guide6"
       inkscape:locked="false" />
    <sodipodi:guide
       position="408.22895,399.07625"
       orientation="1,0"
       id="guide7"
       inkscape:locked="false" />
    <sodipodi:guide
       position="3.9721679e-07,399.07625"
       orientation="1,0"
       id="guide8"
       inkscape:locked="false" />
    <sodipodi:guide
       position="22.579121,496.6105"
       orientation="0,-1"
       id="guide9"
       inkscape:locked="false" />
    <sodipodi:guide
       position="268.52232,356.76758"
       orientation="0,-1"
       id="guide10"
       inkscape:locked="false" />
    <sodipodi:guide
       position="-4.0911426,418.24811"
       orientation="0,-1"
       id="guide11"
       inkscape:locked="false" />
    <sodipodi:guide
       position="-4.0911426,408.66217"
       orientation="0,-1"
       id="guide12"
       inkscape:locked="false" />
  </sodipodi:namedview>
  <g
     id="g8420"
     transform="translate(125.87636,-511.87457)">
    <g
       id="g8520"
       transform="translate(23.53936)">
      <text
         xml:space="preserve"
         style="font-size:39.9999px;line-height:1.25;font-family:sans-serif;letter-spacing:9.99999px;word-spacing:0px;stroke-width:0.999999"
         x="43.831863"
         y="2901.4661"
         id="text1934"><tspan
           sodipodi:role="line"
           id="tspan1932"
           x="43.831863"
           y="2901.4661"
           style="stroke-width:0.999999" /></text>
      <text
         transform="matrix(3.7795275,0,0,3.7795275,2737.3333,65.825016)"
         xml:space="preserve"
         id="text1652"
         style="font-size:14.1111px;line-height:1.25;font-family:Montserrat;-inkscape-font-specification:Montserrat;letter-spacing:0px;word-spacing:0px;white-space:pre;shape-inside:url(#rect1654);display:inline" />
      <text
         transform="matrix(3.7795275,0,0,3.7795275,2733.9592,662.57386)"
         y="0"
         x="67.584938"
         style="font-size:14.1111px;line-height:1.25;font-family:Montserrat;-inkscape-font-specification:Montserrat;text-align:center;letter-spacing:0px;word-spacing:0px;white-space:pre;shape-inside:url(#rect3523);display:inline;fill:#294172;fill-opacity:1"
         id="text3521"
         xml:space="preserve" />
      <path
         style="fill:#000000;stroke-width:1.06667"
         id="path2926"
         d="" />
      <g
         id="g5229"
         transform="translate(2.604556e-5,8.9622444)"
         inkscape:export-filename="../../FAW_logo.png"
         inkscape:export-xdpi="96"
         inkscape:export-ydpi="96">
        <g
           id="g5162"
           transform="matrix(0.74156242,0,0,0.74156242,-846.87819,-292.21533)"
           inkscape:export-filename="../../FAW_logo_white.png"
           inkscape:export-xdpi="96"
           inkscape:export-ydpi="96"
           style="fill:#ffffff">
          <g
             id="g5160"
             transform="matrix(-1,0,0,1,2586.0601,0)"
             style="fill:#ffffff">
            <g
               id="g5158"
               transform="translate(32.610175,18.261446)"
               style="fill:#ffffff">
              <g
                 id="g5156"
                 style="fill:#ffffff">
                <g
                   id="g5136"
                   transform="matrix(-3.3862247,0,0,3.3862247,1524.4643,-992.83654)"
                   style="fill:#ffffff;fill-opacity:1">
                  <path
                     style="font-style:normal;font-variant:normal;font-weight:bold;font-stretch:normal;font-size:medium;line-height:25px;font-family:Comfortaa;-inkscape-font-specification:Comfortaa;letter-spacing:0px;word-spacing:0px;fill:#ffffff;fill-opacity:1;stroke:none;stroke-width:1.07548px;stroke-linecap:butt;stroke-linejoin:miter;stroke-opacity:1"
                     d="m 38.834768,604.85247 c -1.319335,-0.0786 -2.290608,1.22719 -2.088215,2.46788 v 9.57869 c -4.164691,-3.49175 -10.947267,-3.24894 -14.791899,0.61755 -3.887993,3.46443 -4.626593,9.747 -1.798861,14.07355 2.07714,3.2663 5.87682,5.59548 9.792599,5.41053 2.462262,-0.0224 4.904871,-1.08285 6.798161,-2.65303 -0.194262,1.23959 0.763016,2.54884 2.088215,2.46926 1.300816,0.058 2.307994,-1.22597 2.108316,-2.46787 -0.02257,-9.21281 0.02256,-18.42616 -0.02257,-27.63864 -0.06768,-1.03896 -1.061396,-1.89324 -2.098615,-1.85792 z m -9.135978,13.76468 c 3.759917,-0.0981 7.118472,3.28679 7.047763,7.0122 0.07903,3.72886 -3.291007,7.10796 -7.047763,7.01221 -3.571989,0.0947 -6.846274,-2.93118 -7.028785,-6.47844 -0.380369,-3.65662 2.621513,-7.22079 6.298523,-7.511 0.242593,-0.0238 0.486331,-0.035 0.730262,-0.035 z"
                     id="path5126"
                     inkscape:connector-curvature="0"
                     sodipodi:nodetypes="ccccccccccccccccccc" />
                  <g
                     style="fill:#ffffff;fill-opacity:1;stroke-width:1.02221"
                     transform="matrix(1.9884093,0,0,1.9605642,-21.088508,330.88193)"
                     id="g5130">
                    <path
                       style="font-style:normal;font-variant:normal;font-weight:bold;font-stretch:normal;font-size:medium;line-height:25px;font-family:Comfortaa;-inkscape-font-specification:Comfortaa;letter-spacing:0px;word-spacing:0px;fill:#ffffff;fill-opacity:1;stroke:none;stroke-width:2.16367;stroke-linecap:butt;stroke-linejoin:miter;stroke-miterlimit:4;stroke-dasharray:none;stroke-opacity:1"
                       d="m -2.5312666,143.62929 v 11.47421 c -0.003,1.4145 2.12023294,1.4145 2.11718234,0 v -7.65727 H 1.7635608 c 0.5092674,0 0.9446445,-0.37386 0.9446445,-0.9741 0,-0.60024 -0.4664127,-0.9648 -0.9446445,-0.9648 h -2.17764176 v -1.76487 c 0,-1.1293 0.8711995,-2.06801 2.62476896,-2.04625 0.6099425,0.008 0.8261384,0.1567 1.048907,0.29442 1.2161282,0.81695 2.3869012,-1.07509 1.1131122,-1.79886 -0.7812122,-0.48483 -1.5111158,-0.65571 -2.3819993,-0.65571 -2.74449516,0 -4.5059235,2.11423 -4.5219745,4.09323 z"
                       id="path5128"
                       inkscape:connector-curvature="0"
                       sodipodi:nodetypes="ccccczcccscccc" />
                  </g>
                  <text
                     xml:space="preserve"
                     style="font-size:40.7059px;line-height:1.25;font-family:Montserrat;-inkscape-font-specification:Montserrat;letter-spacing:0px;word-spacing:0px;fill:#ffffff;fill-opacity:1;stroke:none;stroke-width:0.373735;stroke-miterlimit:4;stroke-dasharray:none;stroke-opacity:1"
                     x="16.966183"
                     y="636.82416"
                     id="text5134"><tspan
                       sodipodi:role="line"
                       x="16.966183"
                       y="636.82416"
                       id="tspan5132"
                       style="font-style:normal;font-variant:normal;font-weight:bold;font-stretch:normal;font-family:Comfortaa;-inkscape-font-specification:'Comfortaa Bold';text-align:end;text-anchor:end;fill:#ffffff;fill-opacity:1;stroke:none;stroke-width:0.373735;stroke-miterlimit:4;stroke-dasharray:none;stroke-opacity:1">w</tspan></text>
                </g>
                <g
                   id="g5142"
                   transform="matrix(-0.5899807,-0.5899807,-0.5899807,0.5899807,1643.5681,813.87552)"
                   style="fill:#ffffff">
                  <path
                     inkscape:connector-curvature="0"
                     id="path5138"
                     style="fill:#ffffff;fill-opacity:1;fill-rule:nonzero;stroke:none;stroke-width:0.681052"
                     d="m 7.5965014,490.47807 c -25.3347134,0 -45.8722424,20.53856 -45.8722334,45.87323 h -0.0028 c 0,25.32731 20.526947,45.85801 45.8542694,45.86825 H 42.983799 l 0.0051,-10e-4 c 0.01686,0 0.03372,10e-4 0.04982,10e-4 5.752475,0 10.414386,-4.65356 10.428268,-10.40234 v -0.003 -35.49584 C 53.448831,510.99934 32.919842,490.47826 7.5969705,490.47826 Z m 20.1552076,34.1191 c 4.120483,0.0591 8.376577,1.80614 11.672317,5.10191 3.58225,3.58217 5.687452,7.68425 6.625303,13.7484 0.93794,6.06401 0.856551,14.14965 0.383087,26.42534 l -0.02992,1.13231 c -0.02561,0.95288 -0.791984,1.71934 -1.744871,1.74487 l -1.132323,0.0299 c -12.275751,0.47351 -20.36223,0.55469 -26.426342,-0.38309 -6.06401,-0.93804 -10.1651472,-3.04312 -13.7473973,-6.62529 -6.2037536,-6.20378 -6.9211569,-15.80895 -1.2201017,-21.50999 3.7813239,-3.78142 8.263659,-4.18779 11.809994,-3.97159 -0.216353,-3.54628 0.191226,-8.02957 3.972576,-11.811 2.672365,-2.67235 6.201966,-3.93388 9.837689,-3.8818 z" />
                  <path
                     inkscape:connector-curvature="0"
                     id="path5140"
                     style="fill:#ffffff;fill-opacity:1;fill-rule:nonzero;stroke:none;stroke-width:0.681052"
                     d="m 27.795611,528.16072 c -2.762236,-0.0515 -5.394376,0.90398 -7.345585,2.85524 -3.504601,3.50457 -3.208266,7.49854 -2.778412,11.0039 0.06719,0.5478 -0.121704,1.096 -0.512016,1.48625 -0.39025,0.39025 -0.938435,0.57911 -1.48624,0.51202 -3.505602,-0.42984 -7.5002995,-0.72519 -11.0049131,2.77941 -4.16268645,4.16266 -3.79533242,11.42359 1.2191002,16.43802 3.1486565,3.14858 6.2151379,4.75885 11.7611229,5.61667 5.450663,0.84309 13.336218,0.80303 25.21022,0.35416 0.448794,-11.87399 0.488905,-19.76062 -0.354157,-25.21121 -0.857793,-5.54596 -2.468043,-8.61153 -5.616687,-11.76012 -2.663909,-2.66392 -5.961918,-4.01602 -9.092433,-4.07434 z" />
                </g>
                <g
                   id="g5148"
                   transform="matrix(-0.5899807,-0.5899807,-0.5899807,0.5899807,1538.7142,813.87552)"
                   style="fill:#ffffff">
                  <path
                     inkscape:connector-curvature="0"
                     id="path5144"
                     style="fill:#ffffff;fill-opacity:1;fill-rule:nonzero;stroke:none;stroke-width:0.681052"
                     d="m 7.5965014,490.47807 c -25.3347134,0 -45.8722424,20.53856 -45.8722334,45.87323 h -0.0028 c 0,25.32731 20.526947,45.85801 45.8542694,45.86825 H 42.983799 l 0.0051,-10e-4 c 0.01686,0 0.03372,10e-4 0.04982,10e-4 5.752475,0 10.414386,-4.65356 10.428268,-10.40234 v -0.003 -35.49584 C 53.448831,510.99934 32.919842,490.47826 7.5969705,490.47826 Z m 20.1552076,34.1191 c 4.120483,0.0591 8.376577,1.80614 11.672317,5.10191 3.58225,3.58217 5.687452,7.68425 6.625303,13.7484 0.93794,6.06401 0.856551,14.14965 0.383087,26.42534 l -0.02992,1.13231 c -0.02561,0.95288 -0.791984,1.71934 -1.744871,1.74487 l -1.132323,0.0299 c -12.275751,0.47351 -20.36223,0.55469 -26.426342,-0.38309 -6.06401,-0.93804 -10.1651472,-3.04312 -13.7473973,-6.62529 -6.2037536,-6.20378 -6.9211569,-15.80895 -1.2201017,-21.50999 3.7813239,-3.78142 8.263659,-4.18779 11.809994,-3.97159 -0.216353,-3.54628 0.191226,-8.02957 3.972576,-11.811 2.672365,-2.67235 6.201966,-3.93388 9.837689,-3.8818 z" />
                  <path
                     inkscape:connector-curvature="0"
                     id="path5146"
                     style="fill:#ffffff;fill-opacity:1;fill-rule:nonzero;stroke:none;stroke-width:0.681052"
                     d="m 27.795611,528.16072 c -2.762236,-0.0515 -5.394376,0.90398 -7.345585,2.85524 -3.504601,3.50457 -3.208266,7.49854 -2.778412,11.0039 0.06719,0.5478 -0.121704,1.096 -0.512016,1.48625 -0.39025,0.39025 -0.938435,0.57911 -1.48624,0.51202 -3.505602,-0.42984 -7.5002995,-0.72519 -11.0049131,2.77941 -4.16268645,4.16266 -3.79533242,11.42359 1.2191002,16.43802 3.1486565,3.14858 6.2151379,4.75885 11.7611229,5.61667 5.450663,0.84309 13.336218,0.80303 25.21022,0.35416 0.448794,-11.87399 0.488905,-19.76062 -0.354157,-25.21121 -0.857793,-5.54596 -2.468043,-8.61153 -5.616687,-11.76012 -2.663909,-2.66392 -5.961918,-4.01602 -9.092433,-4.07434 z" />
                </g>
                <g
                   id="g5154"
                   transform="matrix(-0.5899807,-0.5899807,-0.5899807,0.5899807,1433.8604,813.87552)"
                   style="fill:#ffffff">
                  <path
                     inkscape:connector-curvature="0"
                     id="path5150"
                     style="fill:#ffffff;fill-opacity:1;fill-rule:nonzero;stroke:none;stroke-width:0.681052"
                     d="m 7.5963458,490.47791 c -25.3347138,0 -45.8722428,20.53856 -45.8722338,45.87323 h -0.0028 c 0,25.32731 20.526947,45.85801 45.8542698,45.86825 H 42.983643 l 0.0051,-10e-4 c 0.01686,0 0.03372,10e-4 0.04982,10e-4 5.752475,0 10.414386,-4.65356 10.428268,-10.40234 v -0.003 -35.49584 C 53.448675,510.99918 32.919686,490.4781 7.5968149,490.4781 Z m 20.1552072,34.1191 c 4.120483,0.0591 8.376577,1.80614 11.672317,5.10191 3.58225,3.58217 5.687452,7.68425 6.625303,13.7484 0.93794,6.06401 0.856551,14.14965 0.383087,26.42534 l -0.02992,1.13231 c -0.02561,0.95288 -0.791984,1.71934 -1.744871,1.74487 l -1.132323,0.0299 c -12.275751,0.47351 -20.36223,0.55469 -26.426342,-0.38309 -6.06401,-0.93804 -10.1651468,-3.04312 -13.7473969,-6.62529 -6.2037536,-6.20378 -6.9211569,-15.80895 -1.2201017,-21.50999 3.7813239,-3.78142 8.2636586,-4.18779 11.8099936,-3.97159 -0.216353,-3.54628 0.191226,-8.02957 3.972576,-11.811 2.672365,-2.67235 6.201966,-3.93388 9.837689,-3.8818 z" />
                  <path
                     inkscape:connector-curvature="0"
                     id="path5152"
                     style="fill:#ffffff;fill-opacity:1;fill-rule:nonzero;stroke:none;stroke-width:0.681052"
                     d="m 27.795611,528.16072 c -2.762236,-0.0515 -5.394376,0.90398 -7.345585,2.85524 -3.504601,3.50457 -3.208266,7.49854 -2.778412,11.0039 0.06719,0.5478 -0.121704,1.096 -0.512016,1.48625 -0.39025,0.39025 -0.938435,0.57911 -1.48624,0.51202 -3.505602,-0.42984 -7.5002995,-0.72519 -11.0049131,2.77941 -4.16268645,4.16266 -3.79533242,11.42359 1.2191002,16.43802 3.1486565,3.14858 6.2151379,4.75885 11.7611229,5.61667 5.450663,0.84309 13.336218,0.80303 25.21022,0.35416 0.448794,-11.87399 0.488905,-19.76062 -0.354157,-25.21121 -0.857793,-5.54596 -2.468043,-8.61153 -5.616687,-11.76012 -2.663909,-2.66392 -5.961918,-4.01602 -9.092433,-4.07434 z" />
                </g>
              </g>
            </g>
          </g>
        </g>
        <g
           id="g5168"
           transform="matrix(0.79993733,0,0,0.79993733,-13.3673,-645.22603)"
           style="fill:#ffffff;fill-opacity:1">
          <text
             xml:space="preserve"
             style="font-size:33.2872px;line-height:1.25;font-family:Montserrat;-inkscape-font-specification:Montserrat;letter-spacing:0px;word-spacing:0px;fill:#ffffff;fill-opacity:1;stroke-width:0.832178"
             x="83.374901"
             y="1585.0839"
             id="text5166"><tspan
               sodipodi:role="line"
               x="83.374908"
               y="1585.0839"
               id="tspan5164"
               style="font-style:normal;font-variant:normal;font-weight:600;font-stretch:normal;font-family:Montserrat;-inkscape-font-specification:'Montserrat Semi-Bold';text-align:center;text-anchor:middle;fill:#ffffff;fill-opacity:1;stroke-width:0.832178">FEDORA WEEK OF DIVERSITY</tspan></text>
        </g>
      </g>
    </g>
  </g>
</svg>
